EESchema Schematic File Version 2
LIBS:power
LIBS:device
LIBS:transistors
LIBS:conn
LIBS:linear
LIBS:regul
LIBS:74xx
LIBS:cmos4000
LIBS:adc-dac
LIBS:memory
LIBS:xilinx
LIBS:microcontrollers
LIBS:dsp
LIBS:microchip
LIBS:analog_switches
LIBS:motorola
LIBS:texas
LIBS:intel
LIBS:audio
LIBS:interface
LIBS:digital-audio
LIBS:philips
LIBS:display
LIBS:cypress
LIBS:siliconi
LIBS:opto
LIBS:atmel
LIBS:contrib
LIBS:valves
LIBS:Arduino_As_Uno-cache
EELAYER 25 0
EELAYER END
$Descr A4 11693 8268
encoding utf-8
Sheet 1 1
Title ""
Date "lun. 30 mars 2015"
Rev ""
Comp ""
Comment1 ""
Comment2 ""
Comment3 ""
Comment4 ""
$EndDescr
Text Label 8950 1450 1    60   ~ 0
Vin
Text Label 9350 1450 1    60   ~ 0
IOREF
Text Label 8900 2500 0    60   ~ 0
A0
Text Label 8900 2600 0    60   ~ 0
A1
Text Label 8900 2700 0    60   ~ 0
A2
Text Label 8900 2800 0    60   ~ 0
A3
Text Label 8900 2900 0    60   ~ 0
A4(SDA)
Text Label 8900 3000 0    60   ~ 0
A5(SCL)
Text Label 10550 3000 0    60   ~ 0
0(Rx)
Text Label 10550 2800 0    60   ~ 0
2
Text Label 10550 2900 0    60   ~ 0
1(Tx)
Text Label 10550 2700 0    60   ~ 0
3(**)
Text Label 10550 2600 0    60   ~ 0
4
Text Label 10550 2500 0    60   ~ 0
5(**)
Text Label 10550 2400 0    60   ~ 0
6(**)
Text Label 10550 2300 0    60   ~ 0
7
Text Label 10550 2100 0    60   ~ 0
8
Text Label 10550 2000 0    60   ~ 0
9(**)
Text Label 10550 1900 0    60   ~ 0
10(**/SS)
Text Label 10550 1800 0    60   ~ 0
11(**/MOSI)
Text Label 10550 1700 0    60   ~ 0
12(MISO)
Text Label 10550 1600 0    60   ~ 0
13(SCK)
Text Label 10550 1400 0    60   ~ 0
AREF
NoConn ~ 9400 1600
Text Label 10550 1300 0    60   ~ 0
A4(SDA)
Text Label 10550 1200 0    60   ~ 0
A5(SCL)
Text Notes 10850 1000 0    60   ~ 0
Holes
$Comp
L CONN_01X08 P1
U 1 1 56D70129
P 9600 1950
F 0 "P1" H 9600 2400 50  0000 C CNN
F 1 "Power" V 9700 1950 50  0000 C CNN
F 2 "Socket_Arduino_Uno:Socket_Strip_Arduino_1x08" V 9750 1950 20  0000 C CNN
F 3 "" H 9600 1950 50  0000 C CNN
	1    9600 1950
	1    0    0    -1  
$EndComp
Text Label 8650 1800 0    60   ~ 0
Reset
$Comp
L +3.3V #PWR01
U 1 1 56D70538
P 9150 1450
F 0 "#PWR01" H 9150 1300 50  0001 C CNN
F 1 "+3.3V" H 9150 1590 50  0000 C CNN
F 2 "" H 9150 1450 50  0000 C CNN
F 3 "" H 9150 1450 50  0000 C CNN
	1    9150 1450
	1    0    0    -1  
$EndComp
$Comp
L +5V #PWR02
U 1 1 56D707BB
P 9050 1350
F 0 "#PWR02" H 9050 1200 50  0001 C CNN
F 1 "+5V" H 9050 1490 50  0000 C CNN
F 2 "" H 9050 1350 50  0000 C CNN
F 3 "" H 9050 1350 50  0000 C CNN
	1    9050 1350
	1    0    0    -1  
$EndComp
$Comp
L GND #PWR03
U 1 1 56D70CC2
P 9300 3150
F 0 "#PWR03" H 9300 2900 50  0001 C CNN
F 1 "GND" H 9300 3000 50  0000 C CNN
F 2 "" H 9300 3150 50  0000 C CNN
F 3 "" H 9300 3150 50  0000 C CNN
	1    9300 3150
	1    0    0    -1  
$EndComp
$Comp
L GND #PWR04
U 1 1 56D70CFF
P 10300 3150
F 0 "#PWR04" H 10300 2900 50  0001 C CNN
F 1 "GND" H 10300 3000 50  0000 C CNN
F 2 "" H 10300 3150 50  0000 C CNN
F 3 "" H 10300 3150 50  0000 C CNN
	1    10300 3150
	1    0    0    -1  
$EndComp
$Comp
L CONN_01X06 P2
U 1 1 56D70DD8
P 9600 2750
F 0 "P2" H 9600 3100 50  0000 C CNN
F 1 "Analog" V 9700 2750 50  0000 C CNN
F 2 "Socket_Arduino_Uno:Socket_Strip_Arduino_1x06" V 9750 2800 20  0000 C CNN
F 3 "" H 9600 2750 50  0000 C CNN
	1    9600 2750
	1    0    0    -1  
$EndComp
$Comp
L CONN_01X01 P5
U 1 1 56D71177
P 10800 650
F 0 "P5" V 10900 650 50  0000 C CNN
F 1 "CONN_01X01" V 10900 650 50  0001 C CNN
F 2 "Socket_Arduino_Uno:Arduino_1pin" H 10721 724 20  0000 C CNN
F 3 "" H 10800 650 50  0000 C CNN
	1    10800 650 
	0    -1   -1   0   
$EndComp
$Comp
L CONN_01X01 P6
U 1 1 56D71274
P 10900 650
F 0 "P6" V 11000 650 50  0000 C CNN
F 1 "CONN_01X01" V 11000 650 50  0001 C CNN
F 2 "Socket_Arduino_Uno:Arduino_1pin" H 10900 650 20  0001 C CNN
F 3 "" H 10900 650 50  0000 C CNN
	1    10900 650 
	0    -1   -1   0   
$EndComp
$Comp
L CONN_01X01 P7
U 1 1 56D712A8
P 11000 650
F 0 "P7" V 11100 650 50  0000 C CNN
F 1 "CONN_01X01" V 11100 650 50  0001 C CNN
F 2 "Socket_Arduino_Uno:Arduino_1pin" V 11000 650 20  0001 C CNN
F 3 "" H 11000 650 50  0000 C CNN
	1    11000 650 
	0    -1   -1   0   
$EndComp
$Comp
L CONN_01X01 P8
U 1 1 56D712DB
P 11100 650
F 0 "P8" V 11200 650 50  0000 C CNN
F 1 "CONN_01X01" V 11200 650 50  0001 C CNN
F 2 "Socket_Arduino_Uno:Arduino_1pin" H 11024 572 20  0000 C CNN
F 3 "" H 11100 650 50  0000 C CNN
	1    11100 650 
	0    -1   -1   0   
$EndComp
NoConn ~ 10800 850 
NoConn ~ 10900 850 
NoConn ~ 11000 850 
NoConn ~ 11100 850 
$Comp
L CONN_01X08 P4
U 1 1 56D7164F
P 10000 2650
F 0 "P4" H 10000 3100 50  0000 C CNN
F 1 "Digital" V 10100 2650 50  0000 C CNN
F 2 "Socket_Arduino_Uno:Socket_Strip_Arduino_1x08" V 10150 2600 20  0000 C CNN
F 3 "" H 10000 2650 50  0000 C CNN
	1    10000 2650
	-1   0    0    -1  
$EndComp
Wire Wire Line
	9350 1450 9350 1700
Wire Wire Line
	9350 1700 9400 1700
Wire Wire Line
	9400 1900 9150 1900
Wire Wire Line
	9400 2000 9050 2000
Wire Wire Line
	9400 2300 8950 2300
Wire Wire Line
	9400 2100 9300 2100
Wire Wire Line
	9400 2200 9300 2200
Connection ~ 9300 2200
Wire Wire Line
	8950 2300 8950 1450
Wire Wire Line
	9050 2000 9050 1350
Wire Wire Line
	9150 1900 9150 1450
Wire Wire Line
	9400 2500 8900 2500
Wire Wire Line
	9400 2600 8900 2600
Wire Wire Line
	9400 2700 8900 2700
Wire Wire Line
	9400 2800 8900 2800
Wire Wire Line
	9400 2900 8900 2900
Wire Wire Line
	9400 3000 8900 3000
$Comp
L CONN_01X10 P3
U 1 1 56D721E0
P 10000 1650
F 0 "P3" H 10000 2200 50  0000 C CNN
F 1 "Digital" V 10100 1650 50  0000 C CNN
F 2 "Socket_Arduino_Uno:Socket_Strip_Arduino_1x10" V 10150 1650 20  0000 C CNN
F 3 "" H 10000 1650 50  0000 C CNN
	1    10000 1650
	-1   0    0    -1  
$EndComp
Wire Wire Line
	10200 2100 10550 2100
Wire Wire Line
	10200 2000 10550 2000
Wire Wire Line
	10200 1900 10550 1900
Wire Wire Line
	10200 1800 10550 1800
Wire Wire Line
	10200 1700 10550 1700
Wire Wire Line
	10200 1600 10550 1600
Wire Wire Line
	10200 1400 10550 1400
Wire Wire Line
	10200 1300 10550 1300
Wire Wire Line
	10200 1200 10550 1200
Wire Wire Line
	10200 3000 10550 3000
Wire Wire Line
	10200 2900 10550 2900
Wire Wire Line
	10200 2800 10550 2800
Wire Wire Line
	10200 2700 10550 2700
Wire Wire Line
	10200 2600 10550 2600
Wire Wire Line
	10200 2500 10550 2500
Wire Wire Line
	10200 2400 10550 2400
Wire Wire Line
	10200 2300 10550 2300
Wire Wire Line
	10200 1500 10300 1500
Wire Wire Line
	10300 1500 10300 3150
Wire Wire Line
	9300 2100 9300 2200
Wire Wire Line
	9300 2200 9300 3150
Wire Notes Line
	8500 3450 11200 3450
Wire Wire Line
	9400 1800 8650 1800
Text Notes 9700 1600 0    60   ~ 0
1
Wire Notes Line
	11200 1000 10700 1000
Wire Notes Line
	10700 1000 10700 500 
$EndSCHEMATC
